^G:\PROGRAMING\C++\ENGINE\BIN\DEBUG\INTERMEDIATES\MAIN.OBJ|G:\PROGRAMING\C++\ENGINE\BIN\DEBUG\INTERMEDIATES\MAT4.OBJ|G:\PROGRAMING\C++\ENGINE\BIN\DEBUG\INTERMEDIATES\SHADER.OBJ|G:\PROGRAMING\C++\ENGINE\BIN\DEBUG\INTERMEDIATES\VEC2.OBJ|G:\PROGRAMING\C++\ENGINE\BIN\DEBUG\INTERMEDIATES\VEC3.OBJ|G:\PROGRAMING\C++\ENGINE\BIN\DEBUG\INTERMEDIATES\VEC4.OBJ|G:\PROGRAMING\C++\ENGINE\BIN\DEBUG\INTERMEDIATES\WINDOW.OBJ
/OUT:"G:\PROGRAMING\C++\ENGINE\\BIN\DEBUG\ENGINE CORE.EXE" /INCREMENTAL /NOLOGO GLFW3.LIB OPENGL32.LIB GLEW32S.LIB KERNEL32.LIB USER32.LIB GDI32.LIB WINSPOOL.LIB COMDLG32.LIB ADVAPI32.LIB SHELL32.LIB OLE32.LIB OLEAUT32.LIB UUID.LIB ODBC32.LIB ODBCCP32.LIB /MANIFEST /MANIFESTUAC:"level='asInvoker' uiAccess='false'" /manifest:embed /Debug /PDB:"G:\PROGRAMING\C++\ENGINE\\BIN\DEBUG\ENGINE CORE.PDB" /TLBID:1 /DYNAMICBASE /NXCOMPAT /IMPLIB:"G:\PROGRAMING\C++\ENGINE\\BIN\DEBUG\ENGINE CORE.LIB" /MACHINE:X86 G:\PROGRAMING\C++\ENGINE\\BIN\DEBUG\INTERMEDIATES\MAIN.OBJG:\PROGRAMING\C++\ENGINE\\BIN\DEBUG\INTERMEDIATES\MAT4.OBJG:\PROGRAMING\C++\ENGINE\\BIN\DEBUG\INTERMEDIATES\SHADER.OBJG:\PROGRAMING\C++\ENGINE\\BIN\DEBUG\INTERMEDIATES\VEC2.OBJG:\PROGRAMING\C++\ENGINE\\BIN\DEBUG\INTERMEDIATES\VEC3.OBJG:\PROGRAMING\C++\ENGINE\\BIN\DEBUG\INTERMEDIATES\VEC4.OBJG:\PROGRAMING\C++\ENGINE\\BIN\DEBUG\INTERMEDIATES\WINDOW.OBJ
^E:\ENGINE\BIN\DEBUG\INTERMEDIATES\MAIN.OBJ|E:\ENGINE\BIN\DEBUG\INTERMEDIATES\MAT4.OBJ|E:\ENGINE\BIN\DEBUG\INTERMEDIATES\SHADER.OBJ|E:\ENGINE\BIN\DEBUG\INTERMEDIATES\VEC2.OBJ|E:\ENGINE\BIN\DEBUG\INTERMEDIATES\VEC3.OBJ|E:\ENGINE\BIN\DEBUG\INTERMEDIATES\VEC4.OBJ|E:\ENGINE\BIN\DEBUG\INTERMEDIATES\WINDOW.OBJ
/OUT:"E:\ENGINE\\BIN\DEBUG\ENGINE CORE.EXE" /INCREMENTAL /NOLOGO GLFW3.LIB OPENGL32.LIB GLEW32S.LIB KERNEL32.LIB USER32.LIB GDI32.LIB WINSPOOL.LIB COMDLG32.LIB ADVAPI32.LIB SHELL32.LIB OLE32.LIB OLEAUT32.LIB UUID.LIB ODBC32.LIB ODBCCP32.LIB /MANIFEST /MANIFESTUAC:"level='asInvoker' uiAccess='false'" /manifest:embed /Debug /PDB:"E:\ENGINE\\BIN\DEBUG\ENGINE CORE.PDB" /TLBID:1 /DYNAMICBASE /NXCOMPAT /IMPLIB:"E:\ENGINE\\BIN\DEBUG\ENGINE CORE.LIB" /MACHINE:X86 E:\ENGINE\\BIN\DEBUG\INTERMEDIATES\MAIN.OBJE:\ENGINE\\BIN\DEBUG\INTERMEDIATES\MAT4.OBJE:\ENGINE\\BIN\DEBUG\INTERMEDIATES\SHADER.OBJE:\ENGINE\\BIN\DEBUG\INTERMEDIATES\VEC2.OBJE:\ENGINE\\BIN\DEBUG\INTERMEDIATES\VEC3.OBJE:\ENGINE\\BIN\DEBUG\INTERMEDIATES\VEC4.OBJE:\ENGINE\\BIN\DEBUG\INTERMEDIATES\WINDOW.OBJ
^E:\UNIINTERVIEW\ENGINE\BIN\DEBUG\INTERMEDIATES\MAIN.OBJ|E:\UNIINTERVIEW\ENGINE\BIN\DEBUG\INTERMEDIATES\MAT4.OBJ|E:\UNIINTERVIEW\ENGINE\BIN\DEBUG\INTERMEDIATES\SHADER.OBJ|E:\UNIINTERVIEW\ENGINE\BIN\DEBUG\INTERMEDIATES\VEC2.OBJ|E:\UNIINTERVIEW\ENGINE\BIN\DEBUG\INTERMEDIATES\VEC3.OBJ|E:\UNIINTERVIEW\ENGINE\BIN\DEBUG\INTERMEDIATES\VEC4.OBJ|E:\UNIINTERVIEW\ENGINE\BIN\DEBUG\INTERMEDIATES\WINDOW.OBJ
/OUT:"E:\UNIINTERVIEW\ENGINE\\BIN\DEBUG\ENGINE CORE.EXE" /INCREMENTAL /NOLOGO GLFW3.LIB OPENGL32.LIB GLEW32S.LIB KERNEL32.LIB USER32.LIB GDI32.LIB WINSPOOL.LIB COMDLG32.LIB ADVAPI32.LIB SHELL32.LIB OLE32.LIB OLEAUT32.LIB UUID.LIB ODBC32.LIB ODBCCP32.LIB /MANIFEST /MANIFESTUAC:"level='asInvoker' uiAccess='false'" /manifest:embed /Debug /PDB:"E:\UNIINTERVIEW\ENGINE\\BIN\DEBUG\ENGINE CORE.PDB" /TLBID:1 /DYNAMICBASE /NXCOMPAT /IMPLIB:"E:\UNIINTERVIEW\ENGINE\\BIN\DEBUG\ENGINE CORE.LIB" /MACHINE:X86 E:\UNIINTERVIEW\ENGINE\\BIN\DEBUG\INTERMEDIATES\MAIN.OBJE:\UNIINTERVIEW\ENGINE\\BIN\DEBUG\INTERMEDIATES\MAT4.OBJE:\UNIINTERVIEW\ENGINE\\BIN\DEBUG\INTERMEDIATES\SHADER.OBJE:\UNIINTERVIEW\ENGINE\\BIN\DEBUG\INTERMEDIATES\VEC2.OBJE:\UNIINTERVIEW\ENGINE\\BIN\DEBUG\INTERMEDIATES\VEC3.OBJE:\UNIINTERVIEW\ENGINE\\BIN\DEBUG\INTERMEDIATES\VEC4.OBJE:\UNIINTERVIEW\ENGINE\\BIN\DEBUG\INTERMEDIATES\WINDOW.OBJ
